C:\Users\dmustafaj\Desktop\Fshije\bitconex\demo\src\main\java\com\example\bitconex\demo\product\dto\AbstractProductDto.java
C:\Users\dmustafaj\Desktop\Fshije\bitconex\demo\src\main\java\com\example\bitconex\demo\product\validation\ScheduledProductValidator.java
C:\Users\dmustafaj\Desktop\Fshije\bitconex\demo\src\main\java\com\example\bitconex\demo\Application.java
C:\Users\dmustafaj\Desktop\Fshije\bitconex\demo\src\main\java\com\example\bitconex\demo\commons\RequestCantBeProcessed.java
C:\Users\dmustafaj\Desktop\Fshije\bitconex\demo\src\main\java\com\example\bitconex\demo\client\repository\ClientRepository.java
C:\Users\dmustafaj\Desktop\Fshije\bitconex\demo\src\main\java\com\example\bitconex\demo\commons\dtoFields\BooleanField.java
C:\Users\dmustafaj\Desktop\Fshije\bitconex\demo\src\main\java\com\example\bitconex\demo\commons\dtoFields\StringField.java
C:\Users\dmustafaj\Desktop\Fshije\bitconex\demo\src\main\java\com\example\bitconex\demo\product\model\DeviceTypes.java
C:\Users\dmustafaj\Desktop\Fshije\bitconex\demo\src\main\java\com\example\bitconex\demo\client\model\Client.java
C:\Users\dmustafaj\Desktop\Fshije\bitconex\demo\src\main\java\com\example\bitconex\demo\commons\ValidatableDto.java
C:\Users\dmustafaj\Desktop\Fshije\bitconex\demo\src\main\java\com\example\bitconex\demo\product\controller\ProductRestService.java
C:\Users\dmustafaj\Desktop\Fshije\bitconex\demo\src\main\java\com\example\bitconex\demo\product\model\ScheduledProductStatus.java
C:\Users\dmustafaj\Desktop\Fshije\bitconex\demo\src\main\java\com\example\bitconex\demo\commons\Invalidator.java
C:\Users\dmustafaj\Desktop\Fshije\bitconex\demo\src\main\java\com\example\bitconex\demo\client\service\ClientService.java
C:\Users\dmustafaj\Desktop\Fshije\bitconex\demo\src\main\java\com\example\bitconex\demo\product\model\ScheduledProduct.java
C:\Users\dmustafaj\Desktop\Fshije\bitconex\demo\src\main\java\com\example\bitconex\demo\commons\dtoFields\IntField.java
C:\Users\dmustafaj\Desktop\Fshije\bitconex\demo\src\main\java\com\example\bitconex\demo\product\controller\ProductSchedulerRestService.java
C:\Users\dmustafaj\Desktop\Fshije\bitconex\demo\src\main\java\com\example\bitconex\demo\product\service\ProductService.java
C:\Users\dmustafaj\Desktop\Fshije\bitconex\demo\src\main\java\com\example\bitconex\demo\product\service\ScheduledProductService.java
C:\Users\dmustafaj\Desktop\Fshije\bitconex\demo\src\main\java\com\example\bitconex\demo\commons\dtoFields\LongField.java
C:\Users\dmustafaj\Desktop\Fshije\bitconex\demo\src\main\java\com\example\bitconex\demo\product\dto\ProductDto.java
C:\Users\dmustafaj\Desktop\Fshije\bitconex\demo\src\main\java\com\example\bitconex\demo\client\controller\ClientRestService.java
C:\Users\dmustafaj\Desktop\Fshije\bitconex\demo\src\main\java\com\example\bitconex\demo\commons\dtoFields\GenericField.java
C:\Users\dmustafaj\Desktop\Fshije\bitconex\demo\src\main\java\com\example\bitconex\demo\commons\Validator.java
C:\Users\dmustafaj\Desktop\Fshije\bitconex\demo\src\main\java\com\example\bitconex\demo\product\dto\ScheduledProductMapper.java
C:\Users\dmustafaj\Desktop\Fshije\bitconex\demo\src\main\java\com\example\bitconex\demo\product\repository\ScheduledProductRepository.java
C:\Users\dmustafaj\Desktop\Fshije\bitconex\demo\src\main\java\com\example\bitconex\demo\product\repository\ProductRepository.java
C:\Users\dmustafaj\Desktop\Fshije\bitconex\demo\src\main\java\com\example\bitconex\demo\product\validation\ProductValidator.java
C:\Users\dmustafaj\Desktop\Fshije\bitconex\demo\src\main\java\com\example\bitconex\demo\SwaggerConfig.java
C:\Users\dmustafaj\Desktop\Fshije\bitconex\demo\src\main\java\com\example\bitconex\demo\product\model\AbstractProduct.java
C:\Users\dmustafaj\Desktop\Fshije\bitconex\demo\src\main\java\com\example\bitconex\demo\product\model\TechnologyTypes.java
C:\Users\dmustafaj\Desktop\Fshije\bitconex\demo\src\main\java\com\example\bitconex\demo\client\dto\ClientDto.java
C:\Users\dmustafaj\Desktop\Fshije\bitconex\demo\src\main\java\com\example\bitconex\demo\product\dto\ProductMapper.java
C:\Users\dmustafaj\Desktop\Fshije\bitconex\demo\src\main\java\com\example\bitconex\demo\commons\rest\RestResponse.java
C:\Users\dmustafaj\Desktop\Fshije\bitconex\demo\src\main\java\com\example\bitconex\demo\commons\RepositoryTemplate.java
C:\Users\dmustafaj\Desktop\Fshije\bitconex\demo\src\main\java\com\example\bitconex\demo\client\dto\ClientMapper.java
C:\Users\dmustafaj\Desktop\Fshije\bitconex\demo\src\main\java\com\example\bitconex\demo\commons\dtoFields\DateTimeField.java
C:\Users\dmustafaj\Desktop\Fshije\bitconex\demo\src\main\java\com\example\bitconex\demo\commons\rest\ObjectResponse.java
C:\Users\dmustafaj\Desktop\Fshije\bitconex\demo\src\main\java\com\example\bitconex\demo\commons\rest\RequestHandler.java
C:\Users\dmustafaj\Desktop\Fshije\bitconex\demo\src\main\java\com\example\bitconex\demo\commons\BaseEntity.java
C:\Users\dmustafaj\Desktop\Fshije\bitconex\demo\src\main\java\com\example\bitconex\demo\product\model\Product.java
C:\Users\dmustafaj\Desktop\Fshije\bitconex\demo\src\main\java\com\example\bitconex\demo\product\dto\ScheduledProductDto.java
